0.000300027 
0.000299789 
0.000299511 
0.000299185 
0.000298805 
0.000298362 
0.000297847 
0.000297246 
0.000296548 
0.000295734 
0.000294787 
0.000293684 
0.000292399 
0.000290902 
0.000289159 
0.00028713 
0.00028477 
0.000282028 
0.000278848 
0.000275166 
0.000270915 
0.000266026 
0.000260428 
0.000254053 
0.000246844 
0.000238763 
0.000229797 
0.000219975 
0.000209378 
0.000198155 
0.000186527 
0.0001748 
0.00016335 
0.000152613 
0.000143044 
0.000135081 
0.000129089 
0.000125312 
0.000123841 
0.0001246 
0.000127357 
0.00013176 
0.000137381 
0.000143775 
0.000150517 
0.000157241 
0.000163656 
0.000169549 
0.000174781 
0.000179272 
0.000182994 
0.000185949 
0.000188162 
0.000189668 
0.000190511 
0.000190732 
0.000190374 
0.00018948 
0.000188096 
0.000186275 
0.000184084 
0.000181613 
0.000178985 
0.00017637 
0.000173996 
0.000172161 
0.000171247 
0.000171724 
0.000174143 
0.000179123 
0.000187315 
0.000199356 
0.000215799 
0.000237046 
0.000263274 
0.00029438 
0.000329961 
0.000369319 
0.000411516 
0.000455444 
0.000499929 
0.000543818 
0.000586063 
0.000625781 
0.000662281 
0.000695068 
0.000723836 
0.000748435 
0.00076884 
0.000785119 
0.000797402 
0.000805856 
0.000810669 
0.000812033 
0.000810144 
0.000805198 
0.000797396 
0.000786953 
0.000774107 
0.000759134 
0.00074236 
0.000724177 
0.00070505 
0.000685529 
0.000666248 
0.000647916 
0.000631301 
0.000617202 
0.000606407 
0.000599647 
0.00059754 
0.000600539 
0.000608882 
0.000622555 
0.000641275 
0.000664492 
0.000691407 
0.000721019 
0.000752183 
0.00078367 
0.000814239 
0.0008427 
0.000867972 
0.000889128 
0.000905423 
0.000916325 
0.00092152 
0.000920915 
0.000914642 
0.000903038 
0.000886644 
0.000866176 
0.000842511 
0.000816654 
0.000789702 
0.000762804 
0.000737112 
0.000713726 
0.00069364 
0.000677688 
0.000666498 
0.000660461 
0.000659706 
0.000664108 
0.000673302 
0.000686723 
0.000703649 
0.000723263 
0.000744706 
0.000767132 
0.000789749 
0.000811853 
0.00083285 
0.000852265 
0.00086974 
0.000885028 
0.000897983 
0.000908539 
0.000916698 
0.000922517 
0.00092609 
0.000927537 
0.000926998 
0.000924624 
0.00092057 
0.000914994 
0.000908055 
0.000899912 
0.000890723 
0.000880647 
0.000869845 
0.00085848 
0.000846721 
0.000834741 
0.000822719 
0.000810841 
0.000799296 
0.00078828 
0.000777984 
0.000768596 
0.000760289 
0.000753212 
0.000747472 
0.000743118 
0.000740114 
0.000738312 
0.000737424 
0.000736993 
0.000736384 
0.000734787 
0.000731271 
0.000724872 
0.00071474 
0.000700307 
0.00068144 
0.000658546 
0.000632555 
0.00060481 
0.000576869 
0.000550297 
0.000526491 
0.000506588 
0.000491443 
0.000481666 
0.000477678 
0.000479776 
0.000488168 
0.000502984 
0.000524245 
0.0005518 
0.000585236 
0.000623779 
0.000666219 
0.000710895 
0.000755782 
0.000798685 
0.000837503 
0.000870512 
0.000896582 
0.00091526 
0.000926725 
0.000931636 
0.000930942 
0.000925699 
0.00091693 
0.000905541 
0.000892287 
0.000877763 
0.000862425 
0.000846614 
0.000830582 
0.000814514 
0.00079855 
0.000782797 
0.000767337 
0.000752236 
0.000737549 
0.000723321 
0.00070959 
0.000696386 
0.000683735 
0.000671659 
0.000660173 
0.000649289 
0.000639018 
0.000629364 
0.00062033 
0.000611917 
0.000604122 
0.000596941 
0.000590369 
0.000584398 
0.000579017 
0.000574217 
0.000569984 
0.000566301 
0.000563151 
0.000560511 
0.000558356 
0.000556652 
0.000555362 
0.000554438 
0.000553826 
0.000553457 
0.000553253 
0.00055312 
0.00055295 
0.000552623 
0.000552007 
0.000550962 
0.000549345 
0.000547021 
0.000543876 
0.000539827 
0.00053484 
0.000528946 
0.000522251 
0.000514948 
0.000507312 
0.000499693 
0.000492494 
0.000486138 
0.000481039 
0.000477555 
0.000475963 
0.000476428 
0.000478989 
0.000483565 
0.000489955 
0.000497867 
0.000506934 
0.000516746 
0.00052687 
0.000536869 
0.000546323 
0.000554832 
0.00056203 
0.00056758 
0.000571179 
0.00057256 
0.000571482 
0.000567741 
0.000561168 
0.000551635 
0.000539063 
0.000523435 
0.000504812 
0.000483345 
0.000459292 
0.000433026 
0.000405038 
0.000375923 
0.000346355 
0.000317047 
0.000288695 
0.000261924 
0.000237235 
0.000214973 
0.000195313 
0.000178265 
0.000163711 
0.000151435 
0.000141169 
0.00013263 
0.000125542 
0.000119657 
0.000114758 
0.000110667 
0.000107236 
0.000104345 
0.0001019 
9.98229e-05 
9.80506e-05 
9.65314e-05 
9.52224e-05 
9.40873e-05 
9.30947e-05 
9.22176e-05 
9.1432e-05 
9.07163e-05 
9.00513e-05 
8.9419e-05 
8.88039e-05 
8.81928e-05 
8.75767e-05 
8.69534e-05 
8.63322e-05 
8.57417e-05 
8.52413e-05 
8.49393e-05 
8.50165e-05 
8.57598e-05 
8.76015e-05 
9.11635e-05 
9.72975e-05 
0.000107109 
0.000121945 
0.000143331 
0.000172839 
0.000211893 
0.000261527 
0.000322162 
0.00039343 
0.000474127 
0.000562286 
0.000655376 
0.000750568 
0.000845012 
0.000936074 
0.0010215 
0.00109948 
0.00116868 
0.00122821 
0.00127752 
0.00131633 
0.00134458 
0.00136235 
0.0013698 
0.00136715 
0.00135466 
0.00133261 
0.00130136 
0.00126132 
0.001213 
0.00115707 
0.00109437 
0.00102598 
0.000953244 
0.000877771 
0.000801435 
0.000726311 
0.000654581 
0.000588388 
0.000529672 
0.000479997 
0.000440405 
0.000411325 
0.000392564 
0.000383374 
0.000382581 
0.000388751 
0.00040036 
0.000415931 
0.000434136 
0.000453847 
0.000474153 
0.000494343 
0.000513881 
0.000532373 
0.000549527 
0.000565132 
0.000579031 
0.000591106 
0.000601267 
0.000609443 
0.000615577 
0.000619628 
0.000621567 
0.000621378 
0.00061906 
0.000614628 
0.000608116 
0.000599576 
0.000589086 
0.000576744 
0.00056268 
0.000547049 
0.000530034 
0.000511851 
0.000492743 
0.000472982 
0.000452861 
0.000432694 
0.000412805 
0.000393523 
0.00037517 
0.000358049 
0.000342438 
0.000328575 
0.00031665 
0.0003068 
0.000299103 
0.000293577 
0.000290185 
0.000288835 
0.000289393 
0.000291689 
0.000295527 
0.000300697 
0.000306978 
0.000314153 
0.00032201 
0.000330348 
0.00033898 
0.000347733 
0.000356453 
0.000365001 
0.000373251 
0.000381096 
0.000388441 
0.000395202 
0.00040131 
0.000406704 
0.000411335 
0.000415163 
0.000418155 
0.000420288 
0.000421545 
0.000421919 
0.000421408 
0.000420016 
0.000417754 
0.000414641 
0.000410699 
0.000405958 
0.000400453 
0.000394224 
0.000387315 
0.000379779 
0.000371668 
0.000363041 
0.000353963 
0.000344497 
0.000334714 
0.000324684 
0.00031448 
0.000304175 
0.000293843 
0.000283556 
0.000273385 
0.000263398 
0.000253661 
0.000244234 
0.000235172 
0.000226524 
0.000218332 
0.000210632 
0.000203451 
0.000196807 
0.00019071 
0.000185161 
0.000180155 
0.000175674 
0.000171695 
0.000168187 
0.000165113 
0.000162429 
0.000160086 
0.000158033 
0.000156217 
0.000154585 
0.000153085 
0.00015167 
0.000150302 
0.000148951 
0.000147599 
0.000146245 
0.000144904 
0.000143611 
0.000142422 
0.000141413 
0.000140676 
0.000140323 
0.000140472 
0.000141251 
0.000142782 
0.000145182 
0.000148547 
0.000152953 
0.000158449 
0.00016505 
0.00017274 
0.00018147 
0.000191161 
0.000201712 
0.000212998 
0.000224883 
0.000237219 
0.000249856 
0.000262647 
0.000275446 
0.000288116 
0.000300529 
0.000312564 
0.000324112 
0.00033507 
0.00034534 
0.000354833 
0.000363457 
0.000371124 
0.000377744 
0.000383224 
0.000387465 
0.000390367 
0.000391824 
0.000391727 
0.000389972 
0.000386459 
0.000381107 
0.000373854 
0.000364679 
0.000353607 
0.000340725 
0.000326193 
0.000310252 
0.000293226 
0.000275515 
0.000257579 
0.000239913 
0.000223014 
0.000207343 
0.000193286 
0.000181125 
0.000171016 
0.000162984 
0.000156928 
0.000152641 
0.000149841 
0.000148197 
0.000147364 
0.000147007 
0.00014682 
0.000146545 
0.000145971 
0.000144948 
0.000143374 
0.000141203 
0.00013843 
0.000135094 
0.000131266 
0.000127046 
0.000122559 
0.000117944 
0.000113351 
0.000108929 
0.000104828 
0.00010118 
9.81017e-05 
9.56825e-05 
9.39833e-05 
0.000300027 
0.000300027 
0.000300027 
0.000300027 
0.000300027 
0.000300027 
0.000300027 
0.000300027 
0.000300027 
0.000300027 
0.000300027 
0.000300027 
0.000300027 
0.000300027 
0.000300027 
0.000300027 
0.000300027 
0.000300027 
0.000300027 
0.000300027 
0.000300027 
0.000300027 
0.000300027 
0.000300027 
0.000300027 
